<?xml version="1.0" encoding="utf-8"?>
<svg xmlns="http://www.w3.org/2000/svg" xmlns:xlink="http://www.w3.org/1999/xlink" style="margin: auto; background: rgb(255, 255, 255); display: block; shape-rendering: auto;" width="200px" height="200px" viewBox="0 0 100 100" preserveAspectRatio="xMidYMid">
<g transform="translate(50 50)">
<g transform="rotate(22.0462)">
<animateTransform attributeName="transform" type="rotate" values="0;45" keyTimes="0;1" dur="0.2s" repeatCount="indefinite"></animateTransform><path d="M28.91366458960192 -8 L36.91366458960192 -8 L36.91366458960192 8 L28.91366458960192 8 A30 30 0 0 1 26.101902549753255 14.78819405076849 L26.101902549753255 14.78819405076849 L31.758756799245635 20.445048300260872 L20.445048300260872 31.75875679924563 L14.788194050768492 26.10190254975325 A30 30 0 0 1 8.000000000000002 28.91366458960192 L8.000000000000002 28.91366458960192 L8.000000000000002 36.91366458960192 L-7.999999999999997 36.91366458960192 L-7.999999999999998 28.91366458960192 A30 30 0 0 1 -14.78819405076849 26.101902549753255 L-14.78819405076849 26.101902549753255 L-20.445048300260872 31.758756799245635 L-31.75875679924563 20.445048300260876 L-26.10190254975325 14.788194050768494 A30 30 0 0 1 -28.91366458960192 8.000000000000004 L-28.91366458960192 8.000000000000004 L-36.91366458960192 8.000000000000005 L-36.91366458960192 -7.999999999999996 L-28.91366458960192 -7.9999999999999964 A30 30 0 0 1 -26.101902549753255 -14.788194050768489 L-26.101902549753255 -14.788194050768489 L-31.758756799245635 -20.44504830026087 L-20.445048300260876 -31.75875679924563 L-14.788194050768496 -26.10190254975325 A30 30 0 0 1 -8.000000000000007 -28.913664589601918 L-8.000000000000007 -28.913664589601918 L-8.000000000000009 -36.91366458960192 L7.999999999999993 -36.91366458960192 L7.999999999999995 -28.91366458960192 A30 30 0 0 1 14.788194050768487 -26.10190254975326 L14.788194050768487 -26.10190254975326 L20.445048300260865 -31.75875679924564 L31.75875679924563 -20.44504830026088 L26.10190254975325 -14.788194050768498 A30 30 0 0 1 28.913664589601918 -8.000000000000009 M0 -20A20 20 0 1 0 0 20 A20 20 0 1 0 0 -20" fill="#45307e"></path></g></g>
<!-- [ldio] generated by https://loading.io/ --></svg>