<svg xmlns="http://www.w3.org/2000/svg" width="90.845" height="90.846" viewBox="0 0 90.845 90.846">
  <g id="Group_1" data-name="Group 1" transform="translate(-12.654 -12.537)">
    <g id="Circle-01" transform="translate(14.329 14.211)">
      <g id="Component_8_1" data-name="Component 8 – 1" transform="translate(0 0)">
        <path id="Path_9027" data-name="Path 9027" d="M303.8,254.6a44.01,44.01,0,1,1-49.2,49.2" transform="translate(-254.6 -254.6)" fill="none" stroke="#45307e" stroke-linecap="round" stroke-linejoin="round" stroke-miterlimit="10" stroke-width="3"/>
        <path id="Path_9028" data-name="Path 9028" d="M367.5,263.337a45.632,45.632,0,0,1,21.649-8.737" transform="translate(-350.385 -254.6)" fill="none" stroke="#45307e" stroke-linecap="round" stroke-linejoin="round" stroke-miterlimit="10" stroke-width="3"/>
        <path id="Path_9029" data-name="Path 9029" d="M254.6,389.249a45.632,45.632,0,0,1,8.737-21.649" transform="translate(-254.6 -350.469)" fill="none" stroke="#45307e" stroke-linecap="round" stroke-linejoin="round" stroke-miterlimit="10" stroke-width="3"/>
      </g>
    </g>
  </g>
</svg>
