<?xml version="1.0" encoding="utf-8"?>
<!-- Generator: Adobe Illustrator 16.2.0, SVG Export Plug-In . SVG Version: 6.00 Build 0)  -->
<!DOCTYPE svg PUBLIC "-//W3C//DTD SVG 1.1//EN" "http://www.w3.org/Graphics/SVG/1.1/DTD/svg11.dtd">
<svg version="1.1" id="Layer_1" xmlns="http://www.w3.org/2000/svg" xmlns:xlink="http://www.w3.org/1999/xlink" x="0px" y="0px"
	 width="136px" height="100.001px" viewBox="0 -13.999 136 100.001" enable-background="new 0 -13.999 136 100.001"
	 xml:space="preserve">
<g id="Group_1" transform="translate(-770.892 -507.876)">
	<path id="Path_2" fill="#45307E" d="M838.872,525.621c1.219-1.576,2.293-3.036,3.441-4.436
		c5.372-6.791,13.083-11.335,21.626-12.746c18.766-3.186,36.66,7.385,41.495,26.13c5.026,19.486-5.951,38.419-25.231,44.175
		c-15.1,4.51-29.523-1.521-38.109-12.262c-1.09-1.363-2.119-2.775-3.268-4.289c-0.422,0.522-0.813,0.959-1.151,1.435
		c-2.838,4.134-6.454,7.675-10.647,10.425c-6.54,4.355-14.297,6.516-22.148,6.168c-8.223-0.42-16.025-3.764-22-9.429
		c-6.288-5.517-10.395-13.101-11.577-21.381c-1.776-12.734,2.239-23.544,11.611-32.291c5.283-5.031,12.084-8.168,19.34-8.921
		c14.106-1.5,25.779,3.069,34.46,14.563C837.399,523.672,838.086,524.581,838.872,525.621z M808.587,523.478
		c-11.377-0.018-20.615,9.19-20.633,20.567s9.19,20.615,20.567,20.633c11.377,0.019,20.615-9.189,20.633-20.567
		c0-0.026,0-0.053,0-0.079c0.014-11.339-9.167-20.541-20.506-20.554C808.627,523.478,808.607,523.478,808.587,523.478z
		 M868.505,523.478c-11.377,0.012-20.59,9.244-20.578,20.621s9.244,20.59,20.621,20.579c11.365-0.012,20.573-9.225,20.578-20.59
		c0.016-11.369-9.189-20.597-20.559-20.611c-0.02,0-0.041,0-0.061,0L868.505,523.478z"/>
	<path id="Path_6" fill="#45307E" d="M906.298,566.592c1.197,4.567,0.646,9.417-1.543,13.6c-3.133,5.9-8.131,9.617-14.291,11.822
		c-7.518,2.688-14.967,2.6-22.2-1.058c-2.573-1.319-4.872-3.118-6.771-5.3C880.755,589.561,896.124,584.418,906.298,566.592z"/>
	<path id="Path_7" fill="#45307E" d="M814.014,538.375c-1.6,1.954-1.724,3.6-0.42,4.961c1.275,1.328,2.889,1.292,4.862-0.106
		c1.834,3.65,0.419,8.69-3.164,11.273c-4.237,3.083-10.171,2.146-13.254-2.091c-3.083-4.238-2.146-10.172,2.091-13.254
		C807.014,537.059,810.833,536.756,814.014,538.375L814.014,538.375z"/>
	<path id="Path_8" fill="#45307E" d="M872.555,538.387c-1.571,1.779-1.724,3.557-0.476,4.906c1.277,1.379,3.03,1.358,4.846-0.057
		c1.64,2.891,0.918,7.95-2.541,10.829c-4.021,3.369-10.014,2.838-13.382-1.184c-2.771-3.31-2.963-8.072-0.466-11.594
		C863.256,537.455,868.386,536.217,872.555,538.387z"/>
</g>
</svg>
