<svg xmlns="http://www.w3.org/2000/svg" xmlns:xlink="http://www.w3.org/1999/xlink" width="52" height="36" viewBox="0 0 52 36">
  <defs>
    <clipPath id="clip-mercado-pago">
      <rect width="52" height="36"/>
    </clipPath>
  </defs>
  <g id="mercado-pago" clip-path="url(#clip-mercado-pago)">
    <path id="Exclusion_1" data-name="Exclusion 1" d="M25.984,36a39.055,39.055,0,0,1-10.733-1.412A26.365,26.365,0,0,1,7.06,30.735C2.507,27.456,0,22.939,0,18.015V17.006A12.055,12.055,0,0,1,2.04,10.4,18.721,18.721,0,0,1,7.605,4.989,33.855,33.855,0,0,1,25.984,0,33.93,33.93,0,0,1,44.391,4.989,18.718,18.718,0,0,1,49.96,10.4,12.051,12.051,0,0,1,52,17.006v1.009c0,4.933-2.5,9.45-7.029,12.719a26.263,26.263,0,0,1-8.2,3.853A39.38,39.38,0,0,1,25.984,36Zm.031-34.99A33.245,33.245,0,0,0,8.311,5.7C3.582,8.717.978,12.734.978,17.006s2.6,8.289,7.333,11.31A33.246,33.246,0,0,0,26.015,33c13.788,0,25.006-7.176,25.006-16S39.8,1.01,26.015,1.01Z"/>
    <path id="Path_6" data-name="Path 6" d="M256.116,1283.924a2.05,2.05,0,0,1-2.052-1.956c0-.095,0-.316-.221-.316a.287.287,0,0,0-.253.126,1.415,1.415,0,0,1-.979.442,2.255,2.255,0,0,1-.663-.126,1.512,1.512,0,0,1-1.137-1.609.276.276,0,0,0-.032-.221l-.095-.063h-.063a.449.449,0,0,0-.189.063,1.61,1.61,0,0,1-.979.347,1.792,1.792,0,0,1-.568-.094,2.094,2.094,0,0,1-1.326-2.461.266.266,0,0,0-.063-.221l-.126-.095-.095.095a1.579,1.579,0,0,1-1.958.221,1.562,1.562,0,0,1-.631-1.862,1.579,1.579,0,0,1,1.642-1.073,1.609,1.609,0,0,1,1.421,1.388l.063.41.221-.347a2.2,2.2,0,0,1,2.557-.915,1.633,1.633,0,0,1,1.1,1.514c.032.19.158.19.19.19a.191.191,0,0,0,.189-.095,1.621,1.621,0,0,1,1.168-.473,2.118,2.118,0,0,1,.884.189c1.484.631.821,2.556.789,2.556-.126.316-.126.473,0,.536l.063.032h.031a1.12,1.12,0,0,0,.316-.063,1.714,1.714,0,0,1,.789-.189,2.035,2.035,0,0,1,0,4.07Zm15.818-9.15c-2.463-2.145-8.177-7.1-9.724-8.266a6.349,6.349,0,0,0-1.989-1.167,3.741,3.741,0,0,0-1.01-.158,3.271,3.271,0,0,0-1.231.221,10.022,10.022,0,0,0-2.968,1.862l-.063.031a7.842,7.842,0,0,1-2.526,1.609,4.28,4.28,0,0,1-.916.095,2.311,2.311,0,0,1-1.768-.568c-.031-.032,0-.126.095-.252l.031-.032,2.147-2.335c1.7-1.7,3.315-3.313,7.009-3.376h.189a13.039,13.039,0,0,1,4.862,1.136,14.653,14.653,0,0,0,6.63,1.578,17.18,17.18,0,0,0,7.262-1.735c-.284-.221-.568-.473-.884-.694a15.951,15.951,0,0,1-6.378,1.451,13.966,13.966,0,0,1-6.188-1.483,14.05,14.05,0,0,0-5.3-1.262h-.221a9.234,9.234,0,0,0-6.03,2.146,12.287,12.287,0,0,0-3,.568,8.057,8.057,0,0,1-2.115.379h-.821a42.526,42.526,0,0,1-7.609-2.114c-.316.221-.6.442-.916.663a37.663,37.663,0,0,0,8.272,2.4c.347,0,.695.063,1.074.063a10.369,10.369,0,0,0,2.4-.442c.442-.126.979-.284,1.484-.379l-.41.41-2.21,2.4a1.1,1.1,0,0,0-.316,1.2,1.526,1.526,0,0,0,.6.663,4.6,4.6,0,0,0,2.336.6,4.288,4.288,0,0,0,.916-.095,8.776,8.776,0,0,0,2.936-1.8,9.575,9.575,0,0,1,2.873-1.735,3.367,3.367,0,0,1,.789-.095h.221a4.286,4.286,0,0,1,2.147,1.041c1.831,1.357,9.819,8.361,9.914,8.424a1.525,1.525,0,0,1,.474,1.2,1.271,1.271,0,0,1-.632,1.01,1.762,1.762,0,0,1-1.042.316,1.929,1.929,0,0,1-.947-.252c-.032-.032-2.778-2.556-3.789-3.376a.707.707,0,0,0-.474-.252.225.225,0,0,0-.189.095c-.158.189,0,.473.221.631l3.22,3.218a1.806,1.806,0,0,1,.442.884,1.477,1.477,0,0,1-.789,1.325,2.32,2.32,0,0,1-1.137.378,1.646,1.646,0,0,1-.916-.284l-.442-.442c-.852-.852-1.7-1.7-2.336-2.24a.939.939,0,0,0-.473-.221.456.456,0,0,0-.221.063.354.354,0,0,0,.063.473c.063.063.095.126.158.189l2.336,2.619a.861.861,0,0,1,.063,1.1l-.095.126a1.369,1.369,0,0,1-.221.189,1.827,1.827,0,0,1-1.136.379,1.182,1.182,0,0,1-.316-.032.8.8,0,0,1-.442-.189l-.031-.031c-.126-.126-1.326-1.325-2.273-2.146a.867.867,0,0,0-.474-.252.342.342,0,0,0-.221.094c-.189.221.095.536.221.663l2.021,2.177a.435.435,0,0,1-.095.126c-.063.126-.316.347-1.042.442a.615.615,0,0,1-.253.032,4.726,4.726,0,0,1-1.958-.6,2.857,2.857,0,0,0-.189-2.84,2.9,2.9,0,0,0-2.494-1.388h-.126a2.667,2.667,0,0,0-1.484-2.808,3.468,3.468,0,0,0-1.263-.252,2.24,2.24,0,0,0-.916.158,2.348,2.348,0,0,0-1.452-1.231,3.079,3.079,0,0,0-1.073-.189,2.763,2.763,0,0,0-1.642.536,2.533,2.533,0,0,0-3.757-.221c-.6-.473-3.063-2.051-9.661-3.534-.347-.063-1.073-.284-1.515-.41-.063.347-.126.725-.158,1.073,0,0,1.2.284,1.452.347,6.725,1.483,8.967,3.061,9.345,3.345a2.5,2.5,0,0,0,2.778,3.439,2.881,2.881,0,0,0,1.894,2.208,2.241,2.241,0,0,0,.916.158,1.745,1.745,0,0,0,.568-.063,2.892,2.892,0,0,0,2.557,1.672,2.3,2.3,0,0,0,.789-.126,2.948,2.948,0,0,0,4.862.946,6.016,6.016,0,0,0,2.526.757c.126,0,.253-.031.379-.031a2.251,2.251,0,0,0,1.7-.852.315.315,0,0,0,.126-.158,3.436,3.436,0,0,0,.789.126,2.627,2.627,0,0,0,1.642-.6,2.274,2.274,0,0,0,.947-1.388,3.44,3.44,0,0,0,.568.031,3.239,3.239,0,0,0,1.673-.505,2.552,2.552,0,0,0,1.2-2.177,1.481,1.481,0,0,0,.537.063,2.809,2.809,0,0,0,1.579-.473,2.264,2.264,0,0,0,1.073-1.767,2.367,2.367,0,0,0-.347-1.451,67.125,67.125,0,0,1,10.387-3.25c-.031-.347-.063-.726-.126-1.073A60.833,60.833,0,0,0,271.934,1274.774Z" transform="translate(-232.026 -1256.095)"/>
  </g>
</svg>
